Converting to and from Document-Term Matrix and Corpus objects
…
If we want to analyze this with tidy tools, we need to turn it into a one-term-per-document-per-row data frame first. The tidy function does this. (For more on the tidy verb, see the broom package).

library(dplyr)
library(tidytext)

ap_td <- tidy(AssociatedPress)

Just as shown in this vignette, having the text in this format is convenient for analysis with the tidytext package. For example, you can perform sentiment analysis on these newspaper articles.

ap_sentiments <- ap_td %>%
  inner_join(get_sentiments("bing"), by = c(term = "word"))

ap_sentiments

## # A tibble: 30,094 x 4
##    document term    count sentiment
##       <int> <chr>   <dbl> <chr>    
##  1        1 assault    1. negative 
##  2        1 complex    1. negative 
##  3        1 death      1. negative 
##  4        1 died       1. negative 
##  5        1 good       2. positive 
##  6        1 illness    1. negative 
##  7        1 killed     2. negative 
##  8        1 like       2. positive 
##  9        1 liked      1. positive 
## 10        1 miracle    1. positive 
## # ... with 30,084 more rows

We can find the most negative documents:

library(tidyr)

ap_sentiments %>%
  count(document, sentiment, wt = count) %>%
  spread(sentiment, n, fill = 0) %>%
  mutate(sentiment = positive - negative) %>%
  arrange(sentiment)

## # A tibble: 2,190 x 4
##    document negative positive sentiment
##       <int>    <dbl>    <dbl>     <dbl>
##  1     1251      54.       6.      -48.
##  2     1380      53.       5.      -48.
##  3      531      51.       9.      -42.
##  4       43      45.      11.      -34.
##  5     1263      44.      10.      -34.
##  6     2178      40.       6.      -34.
##  7      334      45.      12.      -33.
##  8     1664      38.       5.      -33.
##  9     2147      47.      14.      -33.
## 10      516      38.       6.      -32.
## # ... with 2,180 more rows
…
Note that a tidier is also available for the dfm class from the quanteda package:

library(methods)

data("data_corpus_inaugural", package = "quanteda")
d <- quanteda::dfm(data_corpus_inaugural, verbose = FALSE)

d

## Document-feature matrix of: 58 documents, 9,357 features (91.8% sparse).

tidy(d)

## # A tibble: 44,709 x 3
##    document        term            count
##    <chr>           <chr>           <dbl>
##  1 1789-Washington fellow-citizens    1.
##  2 1797-Adams      fellow-citizens    3.
##  3 1801-Jefferson  fellow-citizens    2.
##  4 1809-Madison    fellow-citizens    1.
##  5 1813-Madison    fellow-citizens    1.
##  6 1817-Monroe     fellow-citizens    5.
##  7 1821-Monroe     fellow-citizens    1.
##  8 1841-Harrison   fellow-citizens   11.
##  9 1845-Polk       fellow-citizens    1.
## 10 1849-Taylor     fellow-citizens    1.
## # ... with 44,699 more rows

Casting tidy text data into a DocumentTermMatrix

Some existing text mining tools or algorithms work only on sparse document-term matrices. Therefore, tidytext provides cast_ verbs for converting from a tidy form to these matrices.

ap_td

## # A tibble: 302,031 x 3
##    document term       count
##       <int> <chr>      <dbl>
##  1        1 adding        1.
##  2        1 adult         2.
##  3        1 ago           1.
##  4        1 alcohol       1.
##  5        1 allegedly     1.
##  6        1 allen         1.
##  7        1 apparently    2.
##  8        1 appeared      1.
##  9        1 arrested      1.
## 10        1 assault       1.
## # ... with 302,021 more rows
…
Similarly, you can tidy a corpus object from the quanteda package:

library(quanteda)

data("data_corpus_inaugural")

data_corpus_inaugural

## Corpus consisting of 58 documents and 3 docvars.

inaug_td <- tidy(data_corpus_inaugural)
inaug_td

## # A tibble: 58 x 4
##    text                                           Year President FirstName
##  * <chr>                                         <dbl> <chr>     <chr>    
##  1 "Fellow-Citizens of the Senate and of the Ho 1789. Washingt George   
##  2 "Fellow citizens, I am again called upon by  1793. Washingt George   
##  3 "When it was first perceived, in early times 1797. Adams     John     
##  4 "Friends and Fellow Citizens:\n\nCalled upon 1801. Jefferson Thomas   
##  5 "Proceeding, fellow citizens, to that qualif 1805. Jefferson Thomas   
##  6 "Unwilling to depart from examples of the mo 1809. Madison   James    
##  7 "About to add the solemnity of an oath to th 1813. Madison   James    
##  8 "I should be destitute of feeling if I was n 1817. Monroe    James    
##  9 "Fellow citizens, I shall not attempt to des 1821. Monroe    James    
## 10 "In compliance with an usage coeval with the 1825. Adams     John Qui
## # ... with 48 more rows

This lets us work with tidy tools like unnest_tokens to analyze the text alongside the metadata.

inaug_words <- inaug_td %>%
  unnest_tokens(word, text) %>%
  anti_join(stop_words)

inaug_words

## # A tibble: 50,156 x 4
##     Year President  FirstName word           
##    <dbl> <chr>      <chr>     <chr>          
##  1 1789. Washington George    fellow         
##  2 1789. Washington George    citizens       
##  3 1789. Washington George    senate         
##  4 1789. Washington George    house          
##  5 1789. Washington George    representatives
##  6 1789. Washington George    vicissitudes   
##  7 1789. Washington George    incident       
##  8 1789. Washington George    life           
##  9 1789. Washington George    event          
## 10 1789. Washington George    filled         
## # ... with 50,146 more rows

We could then, for example, see how the appearance of a word changes over time:

inaug_freq <- inaug_words %>%
  count(Year, word) %>%
  complete(Year, word, fill = list(n = 0)) %>%
  group_by(Year) %>%
  mutate(year_total = sum(n),
         percent = n / year_total) %>%
  ungroup()

inaug_freq

## # A tibble: 501,990 x 5
##     Year word            n year_total percent
##    <dbl> <chr>       <dbl>      <dbl>   <dbl>
##  1 1789. 1              0.       529. 0.     
##  2 1789. 1,000          0.       529. 0.     
##  3 1789. 100            0.       529. 0.     
##  4 1789. 100,000,000    0.       529. 0.     
##  5 1789. 120,000,000    0.       529. 0.     
##  6 1789. 125            0.       529. 0.     
##  7 1789. 13             0.       529. 0.     
##  8 1789. 14th           1.       529. 0.00189
##  9 1789. 15th           0.       529. 0.     
## 10 1789. 16             0.       529. 0.     
## # ... with 501,980 more rows

For example, we can use the broom package to perform logistic regression on each word.

models <- inaug_freq %>%
  group_by(word) %>%
  filter(sum(n) > 50) %>%
  do(tidy(glm(cbind(n, year_total - n) ~ Year, .,
              family = "binomial"))) %>%
  ungroup() %>%
  filter(term == "Year")

models

## # A tibble: 114 x 6
##    word           term  estimate std.error statistic  p.value
##    <chr>          <chr>    <dbl>     <dbl>     <dbl>    <dbl>
##  1 act            Year   0.00636   0.00215      2.96 3.10e- 3
##  2 action         Year   0.00209   0.00190      1.10 2.71e- 1
##  3 administration Year  -0.00667   0.00184     -3.63 2.84e- 4
##  4 america        Year   0.0200    0.00154     13.0  2.02e-38
##  5 american       Year   0.00818   0.00127      6.43 1.32e-10
##  6 americans      Year   0.0316    0.00346      9.14 6.22e-20
##  7 authority      Year  -0.00585   0.00232     -2.53 1.15e- 2
##  8 business       Year   0.00332   0.00199      1.67 9.48e- 2
##  9 called         Year  -0.00222   0.00207     -1.07 2.83e- 1
## 10 century        Year   0.0155    0.00242      6.41 1.45e-10
## # ... with 104 more rows

models %>%
  filter(term == "Year") %>%
  arrange(desc(abs(estimate)))

## # A tibble: 114 x 6
##    word      term  estimate std.error statistic  p.value
##    <chr>     <chr>    <dbl>     <dbl>     <dbl>    <dbl>
##  1 americans Year    0.0316  0.00346       9.14 6.22e-20
##  2 america   Year    0.0200  0.00154      13.0  2.02e-38
##  3 century   Year    0.0155  0.00242       6.41 1.45e-10
##  4 live      Year    0.0140  0.00242       5.79 6.92e- 9
##  5 god       Year    0.0139  0.00187       7.45 9.67e-14
##  6 democracy Year    0.0135  0.00233       5.78 7.31e- 9
##  7 earth     Year    0.0129  0.00223       5.81 6.13e- 9
##  8 freedom   Year    0.0128  0.00128       9.99 1.66e-23
##  9 powers    Year   -0.0123  0.00197      -6.24 4.32e-10
## 10 world     Year    0.0120  0.000974     12.3  7.10e-35
## # ... with 104 more rows
…
