Introduction to tidytext
…
library(janeaustenr)
library(dplyr)
library(stringr)

original_books <- austen_books() %>%
  group_by(book) %>%
  mutate(line = row_number(),
         chapter = cumsum(str_detect(text, regex("^chapter [\\divxlc]",
                                                 ignore_case = TRUE)))) %>%
  ungroup()

original_books

## # A tibble: 73,422 x 4
##    text                  book                 line chapter
##    <chr>                 <fct>               <int>   <int>
##  1 SENSE AND SENSIBILITY Sense & Sensibility     1       0
##  2 ""                    Sense & Sensibility     2       0
##  3 by Jane Austen        Sense & Sensibility     3       0
##  4 ""                    Sense & Sensibility     4       0
##  5 (1811)                Sense & Sensibility     5       0
##  6 ""                    Sense & Sensibility     6       0
##  7 ""                    Sense & Sensibility     7       0
##  8 ""                    Sense & Sensibility     8       0
##  9 ""                    Sense & Sensibility     9       0
## 10 CHAPTER 1             Sense & Sensibility    10       1
## # ... with 73,412 more rows

To work with this as a tidy dataset, we need to restructure it as one-token-per-row format. The unnest_tokens function is a way to convert a dataframe with a text column to be one-token-per-row:

library(tidytext)
tidy_books <- original_books %>%
  unnest_tokens(word, text)

tidy_books

## # A tibble: 725,055 x 4
##    book                 line chapter word       
##    <fct>               <int>   <int> <chr>      
##  1 Sense & Sensibility     1       0 sense      
##  2 Sense & Sensibility     1       0 and        
##  3 Sense & Sensibility     1       0 sensibility
##  4 Sense & Sensibility     3       0 by         
##  5 Sense & Sensibility     3       0 jane       
##  6 Sense & Sensibility     3       0 austen     
##  7 Sense & Sensibility     5       0 1811       
##  8 Sense & Sensibility    10       1 chapter    
##  9 Sense & Sensibility    10       1 1          
## 10 Sense & Sensibility    13       1 the        
## # ... with 725,045 more rows

This function uses the tokenizers package to separate each line into words. The default tokenizing is for words, but other options include characters, ngrams, sentences, lines, paragraphs, or separation around a regex pattern.

Now that the data is in one-word-per-row format, we can manipulate it with tidy tools like dplyr. We can remove stop words (accessible in a tidy form with the function get_stopwords()) with an anti_join.

cleaned_books <- tidy_books %>%
  anti_join(get_stopwords())

We can also use count to find the most common words in all the books as a whole.

cleaned_books %>%
  count(word, sort = TRUE) 

## # A tibble: 14,375 x 2
##    word      n
##    <chr> <int>
##  1 mr     3015
##  2 mrs    2446
##  3 must   2071
##  4 said   2041
##  5 much   1935
##  6 miss   1855
##  7 one    1831
##  8 well   1523
##  9 every  1456
## 10 think  1440
## # ... with 14,365 more rows

Sentiment analysis can be done as an inner join. Three sentiment lexicons are available via the get_sentiments() function. Let’s look at the words with a joy score from the NRC lexicon. What are the most common joy words in Emma?

nrcjoy <- get_sentiments("nrc") %>%
  filter(sentiment == "joy")

tidy_books %>%
  filter(book == "Emma") %>%
  semi_join(nrcjoy) %>%
  count(word, sort = TRUE)

## # A tibble: 303 x 2
##    word        n
##    <chr>   <int>
##  1 good      359
##  2 young     192
##  3 friend    166
##  4 hope      143
##  5 happy     125
##  6 love      117
##  7 deal       92
##  8 found      92
##  9 present    89
## 10 kind       82
## # ... with 293 more rows
…
Most common positive and negative words

One advantage of having the data frame with both sentiment and word is that we can analyze word counts that contribute to each sentiment.

bing_word_counts <- tidy_books %>%
  inner_join(bing) %>%
  count(word, sentiment, sort = TRUE)

bing_word_counts

## # A tibble: 2,585 x 3
##    word     sentiment     n
##    <chr>    <chr>     <int>
##  1 miss     negative   1855
##  2 well     positive   1523
##  3 good     positive   1380
##  4 great    positive    981
##  5 like     positive    725
##  6 better   positive    639
##  7 enough   positive    613
##  8 happy    positive    534
##  9 love     positive    495
## 10 pleasure positive    462
## # ... with 2,575 more rows
…
