Get a tidy data frame of a single sentiment lexicon — get_sentiments • tidytext
…
    Value

A tbl_df with a word column, and either a sentiment

column (if lexicon is not "afinn") or a numeric value column
(if lexicon is "afinn").

    Examples

library(dplyr)

get_sentiments("bing")
#> # A tibble: 6,786 × 2
#>    word        sentiment
#>    <chr>       <chr>    
#>  1 2-faces     negative 
#>  2 abnormal    negative 
#>  3 abolish     negative 
#>  4 abominable  negative 
#>  5 abominably  negative 
#>  6 abominate   negative 
#>  7 abomination negative 
#>  8 abort       negative 
#>  9 aborted     negative 
#> 10 aborts      negative 
#> # … with 6,776 more rows
…
