Tidiers for LDA and CTM objects from the topicmodels package — lda_tidiers • tidytext
…
  doc_classes <- td_lda_docs %>%
    group_by(document) %>%
    top_n(1) %>%
    ungroup()

  doc_classes

  # which were we most uncertain about?
  doc_classes %>%
    arrange(gamma)
}
#> Selecting by gamma
#> # A tibble: 100 x 3
#>    document topic gamma
#>       <int> <int> <dbl>
#>  1       56     2 0.517
#>  2       22     2 0.631
#>  3       28     1 0.638
#>  4       60     2 0.665
#>  5       31     2 0.671
#>  6       72     2 0.689
#>  7       73     3 0.795
#>  8       36     2 0.926
#>  9        9     3 0.992
#> 10       23     3 0.992
#> # … with 90 more rows
…
