Tidiers for Structural Topic Models from the stm package — stm_tidiers • tidytext
…
austen_sparse <- austen_books() %>%
    unnest_tokens(word, text) %>%
    anti_join(stop_words) %>%
    count(book, word) %>%
    cast_sparse(book, word, n)
#> Joining with `by = join_by(word)`
topic_model <- stm(austen_sparse, K = 12, verbose = FALSE)

# tidy the word-topic combinations
td_beta <- tidy(topic_model)
td_beta
#> # A tibble: 166,968 × 3
#>    topic term      beta
#>    <int> <chr>    <dbl>
#>  1     1 1     1.18e- 4
#>  2     2 1     1.15e-19
#>  3     3 1     5.51e- 5
#>  4     4 1     1.33e-19
#>  5     5 1     4.20e- 5
#>  6     6 1     2.68e- 5
#>  7     7 1     4.20e- 5
#>  8     8 1     1.18e- 4
#>  9     9 1     4.20e- 5
#> 10    10 1     4.20e- 5
#> # … with 166,958 more rows
…
# high FREX words per topic
tidy(topic_model, matrix = "frex")
#> # A tibble: 166,968 × 2
#>    topic term      
#>    <int> <chr>     
#>  1     1 elliot    
#>  2     1 wentworth 
#>  3     1 walter    
#>  4     1 anne      
#>  5     1 russell   
#>  6     1 musgrove  
#>  7     1 louisa    
#>  8     1 charles   
#>  9     1 uppercross
#> 10     1 kellynch  
#> # … with 166,958 more rows

# high lift words per topic
tidy(topic_model, matrix = "lift")
#> # A tibble: 166,968 × 2
#>    topic term           
#>    <int> <chr>          
#>  1     1 acknowledgement
#>  2     1 benwick        
#>  3     1 henrietta      
#>  4     1 lyme           
#>  5     1 musgrove       
#>  6     1 uppercross     
#>  7     1 walter         
#>  8     1 harville       
#>  9     1 kellynch       
#> 10     1 russell        
#> # … with 166,958 more rows

# tidy the document-topic combinations, with optional document names
td_gamma <- tidy(topic_model, matrix = "gamma",
                 document_names = rownames(austen_sparse))
td_gamma
#> # A tibble: 72 × 3
#>    document            topic      gamma
#>    <chr>               <int>      <dbl>
#>  1 Sense & Sensibility     1 0.00000260
#>  2 Pride & Prejudice       1 0.00000279
#>  3 Mansfield Park          1 0.00000268
#>  4 Emma                    1 0.00000230
#>  5 Northanger Abbey        1 0.00000761
#>  6 Persuasion              1 0.333     
#>  7 Sense & Sensibility     2 0.00000472
#>  8 Pride & Prejudice       2 0.00000483
#>  9 Mansfield Park          2 0.00000393
#> 10 Emma                    2 1.00      
#> # … with 62 more rows
…
