Wrapper around unnest_tokens for Penn Treebank Tokenizer — unnest_ptb • tidytext
…
    See also

unnest_tokens()

    Examples

library(dplyr)
library(janeaustenr)

d <- tibble(txt = prideprejudice)

d |>
  unnest_ptb(word, txt)
#> # A tibble: 141,310 × 1
#>    word       
#>    <chr>      
#>  1 "pride"    
#>  2 "and"      
#>  3 "prejudice"
#>  4 ""         
#>  5 "by"       
#>  6 "jane"     
#>  7 "austen"   
#>  8 ""         
#>  9 ""         
#> 10 ""         
#> # ℹ 141,300 more rows
…
