Get a tidy data frame of a single stopword lexicon — get_stopwords • tidytext
…
      source
      The source of the stopword lexicon specified. Default is
"snowball". Use stopwords_getsources from
stopwords to see available sources.

    Value

    A tibble with two columns, word and lexicon. The
parameter lexicon is "quanteda" in this case.

    Examples

library(dplyr)
get_stopwords()
#> # A tibble: 175 x 2
#>    word      lexicon 
#>    <chr>     <chr>   
#>  1 i         snowball
#>  2 me        snowball
#>  3 my        snowball
#>  4 myself    snowball
#>  5 we        snowball
#>  6 our       snowball
#>  7 ours      snowball
#>  8 ourselves snowball
#>  9 you       snowball
#> 10 your      snowball
#> # … with 165 more rows
get_stopwords(source = "smart")
#> # A tibble: 571 x 2
#>    word        lexicon
#>    <chr>       <chr>  
#>  1 a           smart  
#>  2 a's         smart  
#>  3 able        smart  
#>  4 about       smart  
#>  5 above       smart  
#>  6 according   smart  
#>  7 accordingly smart  
#>  8 across      smart  
#>  9 actually    smart  
#> 10 after       smart  
#> # … with 561 more rows
get_stopwords("es", "snowball")
#> # A tibble: 308 x 2
#>    word  lexicon 
#>    <chr> <chr>   
#>  1 de    snowball
#>  2 la    snowball
#>  3 que   snowball
#>  4 el    snowball
#>  5 en    snowball
#>  6 y     snowball
#>  7 a     snowball
#>  8 los   snowball
#>  9 del   snowball
#> 10 se    snowball
#> # … with 298 more rows
get_stopwords("ru", "snowball")
#> # A tibble: 159 x 2
#>    word  lexicon 
#>    <chr> <chr>   
#>  1 и     snowball
#>  2 в     snowball
#>  3 во    snowball
#>  4 не    snowball
#>  5 что   snowball
#>  6 он    snowball
#>  7 на    snowball
#>  8 я     snowball
#>  9 с     snowball
#> 10 со    snowball
#> # … with 149 more rows
…
