Tidiers for LDA objects from the topicmodels package — lda_tidiers • tidytext
…
  doc_classes <- td_lda_docs %>%
    group_by(document) %>%
    top_n(1) %>%
    ungroup()

  doc_classes

  # which were we most uncertain about?
  doc_classes %>%
    arrange(gamma)
}
#> Selecting by gamma
#> # A tibble: 100 x 3
#>    document topic     gamma
#>       <int> <int>     <dbl>
#>  1       40     4 0.5334398
#>  2       98     1 0.6712648
#>  3       84     4 0.7185389
#>  4       87     4 0.7235408
#>  5        5     3 0.7340581
#>  6       73     3 0.8921854
#>  7       56     4 0.9173639
#>  8        9     3 0.9930494
#>  9       23     3 0.9930494
#> 10       22     1 0.9951210
#> # ... with 90 more rows
…
