Parts of speech for English words from the Moby Project — parts_of_speech • tidytext
…
    https://archive.org/details/mobypartofspeech03203gut

    Details

    Another dataset of English parts of speech, available only for
non-commercial use, is available as part of SUBTLEXus at
https://www.ugent.be/pp/experimentele-psychologie/en/research/documents/subtlexus/.

    Examples

library(dplyr)

parts_of_speech
#> # A tibble: 208,259 x 2
#>    word    pos      
#>    <chr>   <chr>    
#>  1 3-d     Adjective
#>  2 3-d     Noun     
#>  3 4-f     Noun     
#>  4 4-h'er  Noun     
#>  5 4-h     Adjective
#>  6 a'      Adjective
#>  7 a-1     Noun     
#>  8 a-axis  Noun     
#>  9 a-bomb  Noun     
#> 10 a-frame Noun     
#> # ... with 208,249 more rows
…
