Converting to and from Document-Term Matrix and Corpus objects • tidytext
…
If we want to analyze this with tidy tools, we need to turn it into a one-term-per-document-per-row data frame first. The tidy function does this. (For more on the tidy verb, see the broom package).

library(dplyr)
library(tidytext)

ap_td <- tidy(AssociatedPress)

Just as shown in this vignette, having the text in this format is convenient for analysis with the tidytext package. For example, you can perform sentiment analysis on these newspaper articles.

ap_sentiments <- ap_td %>%
  inner_join(get_sentiments("bing"), by = c(term = "word"))

ap_sentiments

## # A tibble: 30,094 × 4
##    document term    count sentiment
##       <int> <chr>   <dbl> <chr>    
##  1        1 assault     1 negative 
##  2        1 complex     1 negative 
##  3        1 death       1 negative 
##  4        1 died        1 negative 
##  5        1 good        2 positive 
##  6        1 illness     1 negative 
##  7        1 killed      2 negative 
##  8        1 like        2 positive 
##  9        1 liked       1 positive 
## 10        1 miracle     1 positive 
## # … with 30,084 more rows

We can find the most negative documents:

library(tidyr)

ap_sentiments %>%
  count(document, sentiment, wt = count) %>%
  spread(sentiment, n, fill = 0) %>%
  mutate(sentiment = positive - negative) %>%
  arrange(sentiment)

## # A tibble: 2,190 × 4
##    document negative positive sentiment
##       <int>    <dbl>    <dbl>     <dbl>
##  1     1251       54        6       -48
##  2     1380       53        5       -48
##  3      531       51        9       -42
##  4       43       45       11       -34
##  5     1263       44       10       -34
##  6     2178       40        6       -34
##  7      334       45       12       -33
##  8     1664       38        5       -33
##  9     2147       47       14       -33
## 10      516       38        6       -32
## # … with 2,180 more rows
…
tidy(d)

## # A tibble: 45,453 × 3
##    document        term            count
##    <chr>           <chr>           <dbl>
##  1 1789-Washington fellow-citizens     1
##  2 1797-Adams      fellow-citizens     3
##  3 1801-Jefferson  fellow-citizens     2
##  4 1809-Madison    fellow-citizens     1
##  5 1813-Madison    fellow-citizens     1
##  6 1817-Monroe     fellow-citizens     5
##  7 1821-Monroe     fellow-citizens     1
##  8 1841-Harrison   fellow-citizens    11
##  9 1845-Polk       fellow-citizens     1
## 10 1849-Taylor     fellow-citizens     1
## # … with 45,443 more rows

Casting tidy text data into a DocumentTermMatrix

Some existing text mining tools or algorithms work only on sparse document-term matrices. Therefore, tidytext provides cast_ verbs for converting from a tidy form to these matrices.

ap_td

## # A tibble: 302,031 × 3
##    document term       count
##       <int> <chr>      <dbl>
##  1        1 adding         1
##  2        1 adult          2
##  3        1 ago            1
##  4        1 alcohol        1
##  5        1 allegedly      1
##  6        1 allen          1
##  7        1 apparently     2
##  8        1 appeared       1
##  9        1 arrested       1
## 10        1 assault        1
## # … with 302,021 more rows
…
inaug_td <- tidy(data_corpus_inaugural)
inaug_td

## # A tibble: 59 × 5
##    text                                           Year President FirstName Party
##    <chr>                                         <int> <chr>     <chr>     <fct>
##  1 "Fellow-Citizens of the Senate and of the Ho…  1789 Washingt… George    none 
##  2 "Fellow citizens, I am again called upon by …  1793 Washingt… George    none 
##  3 "When it was first perceived, in early times…  1797 Adams     John      Fede…
##  4 "Friends and Fellow Citizens:\n\nCalled upon…  1801 Jefferson Thomas    Demo…
##  5 "Proceeding, fellow citizens, to that qualif…  1805 Jefferson Thomas    Demo…
##  6 "Unwilling to depart from examples of the mo…  1809 Madison   James     Demo…
##  7 "About to add the solemnity of an oath to th…  1813 Madison   James     Demo…
##  8 "I should be destitute of feeling if I was n…  1817 Monroe    James     Demo…
##  9 "Fellow citizens, I shall not attempt to des…  1821 Monroe    James     Demo…
## 10 "In compliance with an usage coeval with the…  1825 Adams     John Qui… Demo…
## # … with 49 more rows

This lets us work with tidy tools like unnest_tokens to analyze the text alongside the metadata.

inaug_words <- inaug_td %>%
  unnest_tokens(word, text) %>%
  anti_join(stop_words)

inaug_words

## # A tibble: 50,965 × 5
##     Year President  FirstName Party word           
##    <int> <chr>      <chr>     <fct> <chr>          
##  1  1789 Washington George    none  fellow         
##  2  1789 Washington George    none  citizens       
##  3  1789 Washington George    none  senate         
##  4  1789 Washington George    none  house          
##  5  1789 Washington George    none  representatives
##  6  1789 Washington George    none  vicissitudes   
##  7  1789 Washington George    none  incident       
##  8  1789 Washington George    none  life           
##  9  1789 Washington George    none  event          
## 10  1789 Washington George    none  filled         
## # … with 50,955 more rows

We could then, for example, see how the appearance of a word changes over time:

inaug_freq <- inaug_words %>%
  count(Year, word) %>%
  complete(Year, word, fill = list(n = 0)) %>%
  group_by(Year) %>%
  mutate(year_total = sum(n),
         percent = n / year_total) %>%
  ungroup()

inaug_freq

## # A tibble: 514,834 × 5
##     Year word            n year_total percent
##    <int> <chr>       <int>      <int>   <dbl>
##  1  1789 1               0        529 0      
##  2  1789 1,000           0        529 0      
##  3  1789 100             0        529 0      
##  4  1789 100,000,000     0        529 0      
##  5  1789 108             0        529 0      
##  6  1789 11              0        529 0      
##  7  1789 120,000,000     0        529 0      
##  8  1789 125             0        529 0      
##  9  1789 13              0        529 0      
## 10  1789 14th            1        529 0.00189
## # … with 514,824 more rows

For example, we can use the broom package to perform logistic regression on each word.

library(broom)
models <- inaug_freq %>%
  group_by(word) %>%
  filter(sum(n) > 50) %>%
  do(tidy(glm(cbind(n, year_total - n) ~ Year, .,
              family = "binomial"))) %>%
  ungroup() %>%
  filter(term == "Year")

models

## # A tibble: 115 × 6
##    word           term  estimate std.error statistic  p.value
##    <chr>          <chr>    <dbl>     <dbl>     <dbl>    <dbl>
##  1 act            Year   0.00645   0.00207     3.11  1.85e- 3
##  2 action         Year   0.00154   0.00186     0.825 4.09e- 1
##  3 administration Year  -0.00696   0.00182    -3.83  1.29e- 4
##  4 america        Year   0.0202    0.00147    13.7   6.29e-43
##  5 american       Year   0.00854   0.00122     6.99  2.71e-12
##  6 americans      Year   0.0310    0.00321     9.65  5.01e-22
##  7 authority      Year  -0.00616   0.00229    -2.69  7.11e- 3
##  8 business       Year   0.00271   0.00194     1.40  1.63e- 1
##  9 called         Year  -0.00158   0.00198    -0.799 4.24e- 1
## 10 century        Year   0.0145    0.00231     6.27  3.58e-10
## # … with 105 more rows

models %>%
  filter(term == "Year") %>%
  arrange(desc(abs(estimate)))

## # A tibble: 115 × 6
##    word      term  estimate std.error statistic  p.value
##    <chr>     <chr>    <dbl>     <dbl>     <dbl>    <dbl>
##  1 americans Year    0.0310   0.00321      9.65 5.01e-22
##  2 america   Year    0.0202   0.00147     13.7  6.29e-43
##  3 democracy Year    0.0156   0.00223      6.99 2.70e-12
##  4 children  Year    0.0149   0.00246      6.06 1.36e- 9
##  5 century   Year    0.0145   0.00231      6.27 3.58e-10
##  6 god       Year    0.0135   0.00179      7.58 3.36e-14
##  7 live      Year    0.0128   0.00232      5.50 3.70e- 8
##  8 powers    Year   -0.0125   0.00196     -6.38 1.76e-10
##  9 revenue   Year   -0.0122   0.00250     -4.87 1.11e- 6
## 10 foreign   Year   -0.0120   0.00191     -6.31 2.73e-10
## # … with 105 more rows
…
