Tidy Topic Modeling • tidytext
…
Setup

library(dplyr)
library(gutenbergr)

titles <- c("Twenty Thousand Leagues under the Sea", "The War of the Worlds",
            "Pride and Prejudice", "Great Expectations")
books <- gutenberg_works(title %in% titles) %>%
  gutenberg_download(meta_fields = "title")

books

## # A tibble: 51,663 × 3
##    gutenberg_id text                                                          title                
##           <int> <chr>                                                         <chr>                
##  1           36 "The War of the Worlds"                                       The War of the Worlds
##  2           36 ""                                                            The War of the Worlds
##  3           36 "by H. G. Wells [1898]"                                       The War of the Worlds
##  4           36 ""                                                            The War of the Worlds
##  5           36 ""                                                            The War of the Worlds
##  6           36 "     But who shall dwell in these worlds if they be"         The War of the Worlds
##  7           36 "     inhabited? .  .  .  Are we or they Lords of the"        The War of the Worlds
##  8           36 "     World? .  .  .  And how are all things made for man?--" The War of the Worlds
##  9           36 "          KEPLER (quoted in The Anatomy of Melancholy)"      The War of the Worlds
## 10           36 ""                                                            The War of the Worlds
## # ℹ 51,653 more rows
…
by_chapter_word <- by_chapter %>%
  unite(title_chapter, title, chapter) %>%
  unnest_tokens(word, text)

word_counts <- by_chapter_word %>%
  anti_join(stop_words) %>%
  count(title_chapter, word, sort = TRUE)

word_counts

## # A tibble: 104,704 × 3
##    title_chapter            word        n
##    <chr>                    <chr>   <int>
##  1 Great Expectations_57    joe        88
##  2 Great Expectations_7     joe        70
##  3 Great Expectations_17    biddy      63
##  4 Great Expectations_27    joe        58
##  5 Great Expectations_38    estella    58
##  6 Great Expectations_2     joe        56
##  7 Great Expectations_23    pocket     53
##  8 Great Expectations_15    joe        50
##  9 Great Expectations_18    joe        50
## 10 The War of the Worlds_16 brother    50
## # ℹ 104,694 more rows
…
(In this case we know there are four topics because there are four
books; in practice we may need to try a few different values of
k).

Now tidytext gives us the option of returning to a tidy
analysis, using the tidy and augment verbs
borrowed from the broom
package. In particular, we start with the tidy
verb.

chapters_lda_td <- tidy(chapters_lda)
chapters_lda_td

## # A tibble: 72,808 × 3
##    topic term         beta
##    <int> <chr>       <dbl>
##  1     1 joe     1.41e- 16
##  2     2 joe     5.13e- 54
##  3     3 joe     1.40e-  2
##  4     4 joe     2.75e- 39
##  5     1 biddy   3.96e- 22
##  6     2 biddy   5.72e- 62
##  7     3 biddy   4.63e-  3
##  8     4 biddy   3.24e- 47
##  9     1 estella 4.19e- 18
## 10     2 estella 2.09e-136
## # ℹ 72,798 more rows
…
Per-document classification

Each chapter was a “document” in this analysis. Thus, we may want to
know which topics are associated with each document. Can we put the
chapters back together in the correct books?

chapters_lda_gamma <- tidy(chapters_lda, matrix = "gamma")
chapters_lda_gamma

## # A tibble: 772 × 3
##    document                 topic     gamma
##    <chr>                    <int>     <dbl>
##  1 Great Expectations_57        1 0.0000134
##  2 Great Expectations_7         1 0.0000146
##  3 Great Expectations_17        1 0.0000210
##  4 Great Expectations_27        1 0.0000190
##  5 Great Expectations_38        1 0.0000127
##  6 Great Expectations_2         1 0.0000171
##  7 Great Expectations_23        1 0.290    
##  8 Great Expectations_15        1 0.0000143
##  9 Great Expectations_18        1 0.0000126
## 10 The War of the Worlds_16     1 1.000    
## # ℹ 762 more rows

Setting matrix = "gamma" returns a tidied version with
one-document-per-topic-per-row. Now that we have these document
classifications, we can see how well our unsupervised learning did at
distinguishing the four books. First we re-separate the document name
into title and chapter:

chapters_lda_gamma <- chapters_lda_gamma %>%
  separate(document, c("title", "chapter"), sep = "_", convert = TRUE)
chapters_lda_gamma

## # A tibble: 772 × 4
##    title                 chapter topic     gamma
##    <chr>                   <int> <int>     <dbl>
##  1 Great Expectations         57     1 0.0000134
##  2 Great Expectations          7     1 0.0000146
##  3 Great Expectations         17     1 0.0000210
##  4 Great Expectations         27     1 0.0000190
##  5 Great Expectations         38     1 0.0000127
##  6 Great Expectations          2     1 0.0000171
##  7 Great Expectations         23     1 0.290    
##  8 Great Expectations         15     1 0.0000143
##  9 Great Expectations         18     1 0.0000126
## 10 The War of the Worlds      16     1 1.000    
## # ℹ 762 more rows
…
We notice that almost all of the chapters from Pride and
Prejudice, War of the Worlds, and Twenty Thousand
Leagues Under the Sea were uniquely identified as a single topic
each.

chapter_classifications <- chapters_lda_gamma %>%
  group_by(title, chapter) %>%
  slice_max(gamma, n = 1) %>%
  ungroup() %>%
  arrange(gamma)

chapter_classifications

## # A tibble: 193 × 4
##    title              chapter topic gamma
##    <chr>                <int> <int> <dbl>
##  1 Great Expectations      56     3 0.499
##  2 Great Expectations      23     3 0.553
##  3 Great Expectations       3     3 0.579
##  4 Great Expectations      21     3 0.588
##  5 Great Expectations       1     3 0.597
##  6 Great Expectations      46     3 0.606
##  7 Great Expectations      55     3 0.618
##  8 Great Expectations       5     3 0.647
##  9 Great Expectations      20     3 0.647
## 10 Great Expectations      32     3 0.686
## # ℹ 183 more rows
…
assignments <- augment(chapters_lda, data = chapters_dtm)

We can combine this with the consensus book titles to find which
words were incorrectly classified.

assignments <- assignments %>%
  separate(document, c("title", "chapter"), sep = "_", convert = TRUE) %>%
  inner_join(book_topics, join_by(.topic == topic))

assignments

## # A tibble: 104,704 × 6
##    title              chapter term  count .topic consensus         
##    <chr>                <int> <chr> <dbl>  <dbl> <chr>             
##  1 Great Expectations      57 joe      88      3 Great Expectations
##  2 Great Expectations       7 joe      70      3 Great Expectations
##  3 Great Expectations      17 joe       5      3 Great Expectations
##  4 Great Expectations      27 joe      58      3 Great Expectations
##  5 Great Expectations       2 joe      56      3 Great Expectations
##  6 Great Expectations      23 joe       1      3 Great Expectations
##  7 Great Expectations      15 joe      50      3 Great Expectations
##  8 Great Expectations      18 joe      50      3 Great Expectations
##  9 Great Expectations       9 joe      44      3 Great Expectations
## 10 Great Expectations      13 joe      40      3 Great Expectations
## # ℹ 104,694 more rows
…
We notice that almost all the words for Pride and Prejudice,
Twenty Thousand Leagues Under the Sea, and War of the
Worlds were correctly assigned, while Great Expectations
had a fair amount of misassignment.

What were the most commonly mistaken words?

wrong_words <- assignments %>%
  filter(title != consensus)

wrong_words

## # A tibble: 3,641 × 6
##    title                                 chapter term     count .topic
##    <chr>                                   <int> <chr>    <dbl>  <dbl>
##  1 Great Expectations                         20 brother      1      1
##  2 Great Expectations                         37 brother      2      4
##  3 Great Expectations                         22 brother      4      4
##  4 Twenty Thousand Leagues under the Sea       8 miss         1      3
##  5 Great Expectations                          5 sergeant    37      1
##  6 Great Expectations                         46 captain      1      1
##  7 Great Expectations                         32 captain      1      1
##  8 The War of the Worlds                      17 captain      5      2
##  9 Great Expectations                         54 sea          2      1
## 10 Great Expectations                          1 sea          2      1
##    consensus                            
##    <chr>                                
##  1 The War of the Worlds                
##  2 Pride and Prejudice                  
##  3 Pride and Prejudice                  
##  4 Great Expectations                   
##  5 The War of the Worlds                
##  6 The War of the Worlds                
##  7 The War of the Worlds                
##  8 Twenty Thousand Leagues under the Sea
##  9 The War of the Worlds                
## 10 The War of the Worlds                
## # ℹ 3,631 more rows

wrong_words %>%
  count(title, consensus, term, wt = count) %>%
  arrange(desc(n))

## # A tibble: 2,820 × 4
##    title              consensus             term         n
##    <chr>              <chr>                 <chr>    <dbl>
##  1 Great Expectations The War of the Worlds boat        39
##  2 Great Expectations The War of the Worlds sergeant    37
##  3 Great Expectations The War of the Worlds river       34
##  4 Great Expectations The War of the Worlds jack        28
##  5 Great Expectations The War of the Worlds tide        28
##  6 Great Expectations The War of the Worlds water       25
##  7 Great Expectations The War of the Worlds black       19
##  8 Great Expectations The War of the Worlds soldiers    19
##  9 Great Expectations The War of the Worlds london      18
## 10 Great Expectations The War of the Worlds people      18
## # ℹ 2,810 more rows
…
